id,source,target,type
49443,49443,147714,HAS_BANK_ACCOUNT
49605,49605,147876,HAS_BANK_ACCOUNT
49662,49662,147933,HAS_BANK_ACCOUNT
71040,71040,169311,HAS_BANK_ACCOUNT
79638,79638,177909,HAS_BANK_ACCOUNT
49390,49390,147661,HAS_BANK_ACCOUNT
49340,49340,147611,HAS_BANK_ACCOUNT
49302,49302,147573,HAS_BANK_ACCOUNT
49281,49281,147552,HAS_BANK_ACCOUNT
49271,49271,147542,HAS_BANK_ACCOUNT
92733,92733,191004,HAS_BANK_ACCOUNT
80993,80993,179264,HAS_BANK_ACCOUNT
53243,53243,151514,HAS_BANK_ACCOUNT
47232,47232,145503,HAS_BANK_ACCOUNT
49824,49824,148095,HAS_BANK_ACCOUNT
50057,50057,148328,HAS_BANK_ACCOUNT
50089,50089,148360,HAS_BANK_ACCOUNT
50222,50222,148493,HAS_BANK_ACCOUNT
50309,50309,148580,HAS_BANK_ACCOUNT
50444,50444,148715,HAS_BANK_ACCOUNT
50493,50493,148764,HAS_BANK_ACCOUNT
50552,50552,148823,HAS_BANK_ACCOUNT
50588,50588,148859,HAS_BANK_ACCOUNT
50721,50721,148992,HAS_BANK_ACCOUNT
50853,50853,149124,HAS_BANK_ACCOUNT
50868,50868,149139,HAS_BANK_ACCOUNT
51004,51004,149275,HAS_BANK_ACCOUNT
51065,51065,149336,HAS_BANK_ACCOUNT
51092,51092,149363,HAS_BANK_ACCOUNT
51153,51153,149424,HAS_BANK_ACCOUNT
51196,51196,149467,HAS_BANK_ACCOUNT
51295,51295,149566,HAS_BANK_ACCOUNT
51691,51691,149962,HAS_BANK_ACCOUNT
51693,51693,149964,HAS_BANK_ACCOUNT
51709,51709,149980,HAS_BANK_ACCOUNT
51726,51726,149997,HAS_BANK_ACCOUNT
51762,51762,150033,HAS_BANK_ACCOUNT
51935,51935,150206,HAS_BANK_ACCOUNT
52016,52016,150287,HAS_BANK_ACCOUNT
52147,52147,150418,HAS_BANK_ACCOUNT
52343,52343,150614,HAS_BANK_ACCOUNT
52373,52373,150644,HAS_BANK_ACCOUNT
52496,52496,150767,HAS_BANK_ACCOUNT
52574,52574,150845,HAS_BANK_ACCOUNT
52690,52690,150961,HAS_BANK_ACCOUNT
95226,95226,193497,HAS_BANK_ACCOUNT
95240,95240,193511,HAS_BANK_ACCOUNT
95291,95291,193562,HAS_BANK_ACCOUNT
95335,95335,193606,HAS_BANK_ACCOUNT
95412,95412,193683,HAS_BANK_ACCOUNT
95603,95603,193874,HAS_BANK_ACCOUNT
95667,95667,193938,HAS_BANK_ACCOUNT
95738,95738,194009,HAS_BANK_ACCOUNT
95777,95777,194048,HAS_BANK_ACCOUNT
95788,95788,194059,HAS_BANK_ACCOUNT
95808,95808,194079,HAS_BANK_ACCOUNT
95982,95982,194253,HAS_BANK_ACCOUNT
96039,96039,194310,HAS_BANK_ACCOUNT
96276,96276,194547,HAS_BANK_ACCOUNT
96352,96361,194623,HAS_BANK_ACCOUNT
96367,96376,194638,HAS_BANK_ACCOUNT
96408,96417,194679,HAS_BANK_ACCOUNT
96420,96429,194691,HAS_BANK_ACCOUNT
96575,96584,194846,HAS_BANK_ACCOUNT
96624,96633,194895,HAS_BANK_ACCOUNT
96626,96635,194897,HAS_BANK_ACCOUNT
96697,96706,194968,HAS_BANK_ACCOUNT
96860,96869,195131,HAS_BANK_ACCOUNT
96928,96937,195199,HAS_BANK_ACCOUNT
96942,96951,195213,HAS_BANK_ACCOUNT
96980,96989,195251,HAS_BANK_ACCOUNT
97049,97058,195320,HAS_BANK_ACCOUNT
97162,97171,195433,HAS_BANK_ACCOUNT
97322,97331,195593,HAS_BANK_ACCOUNT
97621,97630,195892,HAS_BANK_ACCOUNT
97651,97660,195922,HAS_BANK_ACCOUNT
97759,97768,196030,HAS_BANK_ACCOUNT
97846,97855,196117,HAS_BANK_ACCOUNT
97892,97901,196163,HAS_BANK_ACCOUNT
98012,98021,196283,HAS_BANK_ACCOUNT
98118,98127,196389,HAS_BANK_ACCOUNT
98171,98180,196442,HAS_BANK_ACCOUNT
81893,81893,180164,HAS_BANK_ACCOUNT
82034,82034,180305,HAS_BANK_ACCOUNT
82185,82185,180456,HAS_BANK_ACCOUNT
82229,82229,180500,HAS_BANK_ACCOUNT
82338,82338,180609,HAS_BANK_ACCOUNT
82566,82566,180837,HAS_BANK_ACCOUNT
82578,82578,180849,HAS_BANK_ACCOUNT
82624,82624,180895,HAS_BANK_ACCOUNT
82778,82778,181049,HAS_BANK_ACCOUNT
82847,82847,181118,HAS_BANK_ACCOUNT
82851,82851,181122,HAS_BANK_ACCOUNT
82929,82929,181200,HAS_BANK_ACCOUNT
83333,83333,181604,HAS_BANK_ACCOUNT
83342,83342,181613,HAS_BANK_ACCOUNT
83349,83349,181620,HAS_BANK_ACCOUNT
83433,83433,181704,HAS_BANK_ACCOUNT
83492,83492,181763,HAS_BANK_ACCOUNT
83572,83572,181843,HAS_BANK_ACCOUNT
83612,83612,181883,HAS_BANK_ACCOUNT
83687,83687,181958,HAS_BANK_ACCOUNT
83755,83755,182026,HAS_BANK_ACCOUNT
83880,83880,182151,HAS_BANK_ACCOUNT
83949,83949,182220,HAS_BANK_ACCOUNT
84144,84144,182415,HAS_BANK_ACCOUNT
84209,84209,182480,HAS_BANK_ACCOUNT
84211,84211,182482,HAS_BANK_ACCOUNT
84280,84280,182551,HAS_BANK_ACCOUNT
84391,84391,182662,HAS_BANK_ACCOUNT
84486,84486,182757,HAS_BANK_ACCOUNT
84671,84671,182942,HAS_BANK_ACCOUNT
84690,84690,182961,HAS_BANK_ACCOUNT
84842,84842,183113,HAS_BANK_ACCOUNT
84891,84891,183162,HAS_BANK_ACCOUNT
85194,85194,183465,HAS_BANK_ACCOUNT
85276,85276,183547,HAS_BANK_ACCOUNT
85327,85327,183598,HAS_BANK_ACCOUNT
85334,85334,183605,HAS_BANK_ACCOUNT
85417,85417,183688,HAS_BANK_ACCOUNT
85609,85609,183880,HAS_BANK_ACCOUNT
85745,85745,184016,HAS_BANK_ACCOUNT
85845,85845,184116,HAS_BANK_ACCOUNT
85855,85855,184126,HAS_BANK_ACCOUNT
86047,86047,184318,HAS_BANK_ACCOUNT
86058,86058,184329,HAS_BANK_ACCOUNT
86167,86167,184438,HAS_BANK_ACCOUNT
86192,86192,184463,HAS_BANK_ACCOUNT
86263,86263,184534,HAS_BANK_ACCOUNT
86359,86359,184630,HAS_BANK_ACCOUNT
86392,86392,184663,HAS_BANK_ACCOUNT
86562,86562,184833,HAS_BANK_ACCOUNT
86601,86601,184872,HAS_BANK_ACCOUNT
86639,86639,184910,HAS_BANK_ACCOUNT
86762,86762,185033,HAS_BANK_ACCOUNT
87223,87223,185494,HAS_BANK_ACCOUNT
87233,87233,185504,HAS_BANK_ACCOUNT
87258,87258,185529,HAS_BANK_ACCOUNT
87365,87365,185636,HAS_BANK_ACCOUNT
87368,87368,185639,HAS_BANK_ACCOUNT
87423,87423,185694,HAS_BANK_ACCOUNT
87714,87714,185985,HAS_BANK_ACCOUNT
87841,87841,186112,HAS_BANK_ACCOUNT
87894,87894,186165,HAS_BANK_ACCOUNT
87901,87901,186172,HAS_BANK_ACCOUNT
87934,87934,186205,HAS_BANK_ACCOUNT
87941,87941,186212,HAS_BANK_ACCOUNT
88021,88021,186292,HAS_BANK_ACCOUNT
88342,88342,186613,HAS_BANK_ACCOUNT
88674,88674,186945,HAS_BANK_ACCOUNT
88730,88730,187001,HAS_BANK_ACCOUNT
88791,88791,187062,HAS_BANK_ACCOUNT
88808,88808,187079,HAS_BANK_ACCOUNT
88961,88961,187232,HAS_BANK_ACCOUNT
89031,89031,187302,HAS_BANK_ACCOUNT
89199,89199,187470,HAS_BANK_ACCOUNT
89212,89212,187483,HAS_BANK_ACCOUNT
89305,89305,187576,HAS_BANK_ACCOUNT
52918,52918,151189,HAS_BANK_ACCOUNT
52920,52920,151191,HAS_BANK_ACCOUNT
52931,52931,151202,HAS_BANK_ACCOUNT
53040,53040,151311,HAS_BANK_ACCOUNT
53168,53168,151439,HAS_BANK_ACCOUNT
53222,53222,151493,HAS_BANK_ACCOUNT
53311,53311,151582,HAS_BANK_ACCOUNT
53378,53378,151649,HAS_BANK_ACCOUNT
53685,53685,151956,HAS_BANK_ACCOUNT
54176,54176,152447,HAS_BANK_ACCOUNT
54367,54367,152638,HAS_BANK_ACCOUNT
54551,54551,152822,HAS_BANK_ACCOUNT
54610,54610,152881,HAS_BANK_ACCOUNT
54611,54611,152882,HAS_BANK_ACCOUNT
54801,54801,153072,HAS_BANK_ACCOUNT
55054,55054,153325,HAS_BANK_ACCOUNT
55062,55062,153333,HAS_BANK_ACCOUNT
55117,55117,153388,HAS_BANK_ACCOUNT
55220,55220,153491,HAS_BANK_ACCOUNT
55289,55289,153560,HAS_BANK_ACCOUNT
55292,55292,153563,HAS_BANK_ACCOUNT
55431,55431,153702,HAS_BANK_ACCOUNT
55550,55550,153821,HAS_BANK_ACCOUNT
55625,55625,153896,HAS_BANK_ACCOUNT
55667,55667,153938,HAS_BANK_ACCOUNT
55685,55685,153956,HAS_BANK_ACCOUNT
55736,55736,154007,HAS_BANK_ACCOUNT
55849,55849,154120,HAS_BANK_ACCOUNT
56067,56067,154338,HAS_BANK_ACCOUNT
56214,56214,154485,HAS_BANK_ACCOUNT
56240,56240,154511,HAS_BANK_ACCOUNT
56264,56264,154535,HAS_BANK_ACCOUNT
56300,56300,154571,HAS_BANK_ACCOUNT
56303,56303,154574,HAS_BANK_ACCOUNT
56421,56421,154692,HAS_BANK_ACCOUNT
56579,56579,154850,HAS_BANK_ACCOUNT
56733,56733,155004,HAS_BANK_ACCOUNT
56790,56790,155061,HAS_BANK_ACCOUNT
56853,56853,155124,HAS_BANK_ACCOUNT
56890,56890,155161,HAS_BANK_ACCOUNT
56961,56961,155232,HAS_BANK_ACCOUNT
57377,57377,155648,HAS_BANK_ACCOUNT
57396,57396,155667,HAS_BANK_ACCOUNT
57492,57492,155763,HAS_BANK_ACCOUNT
57497,57497,155768,HAS_BANK_ACCOUNT
57538,57538,155809,HAS_BANK_ACCOUNT
57564,57564,155835,HAS_BANK_ACCOUNT
57671,57671,155942,HAS_BANK_ACCOUNT
57904,57904,156175,HAS_BANK_ACCOUNT
57959,57959,156230,HAS_BANK_ACCOUNT
57969,57969,156240,HAS_BANK_ACCOUNT
58057,58057,156328,HAS_BANK_ACCOUNT
58121,58121,156392,HAS_BANK_ACCOUNT
58153,58153,156424,HAS_BANK_ACCOUNT
58207,58207,156478,HAS_BANK_ACCOUNT
58280,58280,156551,HAS_BANK_ACCOUNT
58393,58393,156664,HAS_BANK_ACCOUNT
58448,58448,156719,HAS_BANK_ACCOUNT
58529,58529,156800,HAS_BANK_ACCOUNT
58539,58539,156810,HAS_BANK_ACCOUNT
58573,58573,156844,HAS_BANK_ACCOUNT
58592,58592,156863,HAS_BANK_ACCOUNT
58606,58606,156877,HAS_BANK_ACCOUNT
58733,58733,157004,HAS_BANK_ACCOUNT
58832,58832,157103,HAS_BANK_ACCOUNT
58843,58843,157114,HAS_BANK_ACCOUNT
59124,59124,157395,HAS_BANK_ACCOUNT
59128,59128,157399,HAS_BANK_ACCOUNT
59152,59152,157423,HAS_BANK_ACCOUNT
59427,59427,157698,HAS_BANK_ACCOUNT
70162,70162,168433,HAS_BANK_ACCOUNT
70224,70224,168495,HAS_BANK_ACCOUNT
70375,70375,168646,HAS_BANK_ACCOUNT
70395,70395,168666,HAS_BANK_ACCOUNT
70431,70431,168702,HAS_BANK_ACCOUNT
70604,70604,168875,HAS_BANK_ACCOUNT
70749,70749,169020,HAS_BANK_ACCOUNT
70957,70957,169228,HAS_BANK_ACCOUNT
70981,70981,169252,HAS_BANK_ACCOUNT
71069,71069,169340,HAS_BANK_ACCOUNT
71127,71127,169398,HAS_BANK_ACCOUNT
71300,71300,169571,HAS_BANK_ACCOUNT
71303,71303,169574,HAS_BANK_ACCOUNT
71333,71333,169604,HAS_BANK_ACCOUNT
71398,71398,169669,HAS_BANK_ACCOUNT
71692,71692,169963,HAS_BANK_ACCOUNT
71702,71702,169973,HAS_BANK_ACCOUNT
71748,71748,170019,HAS_BANK_ACCOUNT
71767,71767,170038,HAS_BANK_ACCOUNT
71908,71908,170179,HAS_BANK_ACCOUNT
71964,71964,170235,HAS_BANK_ACCOUNT
72061,72061,170332,HAS_BANK_ACCOUNT
72072,72072,170343,HAS_BANK_ACCOUNT
72138,72138,170409,HAS_BANK_ACCOUNT
72172,72172,170443,HAS_BANK_ACCOUNT
72216,72216,170487,HAS_BANK_ACCOUNT
72547,72547,170818,HAS_BANK_ACCOUNT
72569,72569,170840,HAS_BANK_ACCOUNT
72582,72582,170853,HAS_BANK_ACCOUNT
72655,72655,170926,HAS_BANK_ACCOUNT
72772,72772,171043,HAS_BANK_ACCOUNT
72824,72824,171095,HAS_BANK_ACCOUNT
72899,72899,171170,HAS_BANK_ACCOUNT
73044,73044,171315,HAS_BANK_ACCOUNT
73131,73131,171402,HAS_BANK_ACCOUNT
73159,73159,171430,HAS_BANK_ACCOUNT
73178,73178,171449,HAS_BANK_ACCOUNT
73263,73263,171534,HAS_BANK_ACCOUNT
73563,73563,171834,HAS_BANK_ACCOUNT
73590,73590,171861,HAS_BANK_ACCOUNT
73619,73619,171890,HAS_BANK_ACCOUNT
73659,73659,171930,HAS_BANK_ACCOUNT
73666,73666,171937,HAS_BANK_ACCOUNT
73796,73796,172067,HAS_BANK_ACCOUNT
73867,73867,172138,HAS_BANK_ACCOUNT
73993,73993,172264,HAS_BANK_ACCOUNT
74335,74335,172606,HAS_BANK_ACCOUNT
74633,74633,172904,HAS_BANK_ACCOUNT
74781,74781,173052,HAS_BANK_ACCOUNT
74799,74799,173070,HAS_BANK_ACCOUNT
74802,74802,173073,HAS_BANK_ACCOUNT
74946,74946,173217,HAS_BANK_ACCOUNT
74967,74967,173238,HAS_BANK_ACCOUNT
75242,75242,173513,HAS_BANK_ACCOUNT
75353,75353,173624,HAS_BANK_ACCOUNT
75409,75409,173680,HAS_BANK_ACCOUNT
75454,75454,173725,HAS_BANK_ACCOUNT
75536,75536,173807,HAS_BANK_ACCOUNT
75681,75681,173952,HAS_BANK_ACCOUNT
75746,75746,174017,HAS_BANK_ACCOUNT
75813,75813,174084,HAS_BANK_ACCOUNT
75817,75817,174088,HAS_BANK_ACCOUNT
75895,75895,174166,HAS_BANK_ACCOUNT
75969,75969,174240,HAS_BANK_ACCOUNT
76137,76137,174408,HAS_BANK_ACCOUNT
76218,76218,174489,HAS_BANK_ACCOUNT
76232,76232,174503,HAS_BANK_ACCOUNT
76599,76599,174870,HAS_BANK_ACCOUNT
76612,76612,174883,HAS_BANK_ACCOUNT
76644,76644,174915,HAS_BANK_ACCOUNT
76712,76712,174983,HAS_BANK_ACCOUNT
76859,76859,175130,HAS_BANK_ACCOUNT
77020,77020,175291,HAS_BANK_ACCOUNT
77071,77071,175342,HAS_BANK_ACCOUNT
77083,77083,175354,HAS_BANK_ACCOUNT
77150,77150,175421,HAS_BANK_ACCOUNT
77197,77197,175468,HAS_BANK_ACCOUNT
77295,77295,175566,HAS_BANK_ACCOUNT
77430,77430,175701,HAS_BANK_ACCOUNT
77447,77447,175718,HAS_BANK_ACCOUNT
77534,77534,175805,HAS_BANK_ACCOUNT
77581,77581,175852,HAS_BANK_ACCOUNT
77736,77736,176007,HAS_BANK_ACCOUNT
77744,77744,176015,HAS_BANK_ACCOUNT
77831,77831,176102,HAS_BANK_ACCOUNT
77957,77957,176228,HAS_BANK_ACCOUNT
78115,78115,176386,HAS_BANK_ACCOUNT
78217,78217,176488,HAS_BANK_ACCOUNT
78225,78225,176496,HAS_BANK_ACCOUNT
78345,78345,176616,HAS_BANK_ACCOUNT
78434,78434,176705,HAS_BANK_ACCOUNT
78515,78515,176786,HAS_BANK_ACCOUNT
78516,78516,176787,HAS_BANK_ACCOUNT
78750,78750,177021,HAS_BANK_ACCOUNT
78879,78879,177150,HAS_BANK_ACCOUNT
78990,78990,177261,HAS_BANK_ACCOUNT
79007,79007,177278,HAS_BANK_ACCOUNT
79011,79011,177282,HAS_BANK_ACCOUNT
79225,79225,177496,HAS_BANK_ACCOUNT
79264,79264,177535,HAS_BANK_ACCOUNT
79336,79336,177607,HAS_BANK_ACCOUNT
79357,79357,177628,HAS_BANK_ACCOUNT
79367,79367,177638,HAS_BANK_ACCOUNT
79390,79390,177661,HAS_BANK_ACCOUNT
79511,79511,177782,HAS_BANK_ACCOUNT
79528,79528,177799,HAS_BANK_ACCOUNT
79695,79695,177966,HAS_BANK_ACCOUNT
80145,80145,178416,HAS_BANK_ACCOUNT
80222,80222,178493,HAS_BANK_ACCOUNT
80286,80286,178557,HAS_BANK_ACCOUNT
80340,80340,178611,HAS_BANK_ACCOUNT
80406,80406,178677,HAS_BANK_ACCOUNT
80411,80411,178682,HAS_BANK_ACCOUNT
80765,80765,179036,HAS_BANK_ACCOUNT
80825,80825,179096,HAS_BANK_ACCOUNT
80899,80899,179170,HAS_BANK_ACCOUNT
80984,80984,179255,HAS_BANK_ACCOUNT
81206,81206,179477,HAS_BANK_ACCOUNT
81230,81230,179501,HAS_BANK_ACCOUNT
81248,81248,179519,HAS_BANK_ACCOUNT
81371,81371,179642,HAS_BANK_ACCOUNT
81482,81482,179753,HAS_BANK_ACCOUNT
89364,89364,187635,HAS_BANK_ACCOUNT
89484,89484,187755,HAS_BANK_ACCOUNT
89519,89519,187790,HAS_BANK_ACCOUNT
89582,89582,187853,HAS_BANK_ACCOUNT
89663,89663,187934,HAS_BANK_ACCOUNT
89772,89772,188043,HAS_BANK_ACCOUNT
89848,89848,188119,HAS_BANK_ACCOUNT
89875,89875,188146,HAS_BANK_ACCOUNT
89890,89890,188161,HAS_BANK_ACCOUNT
90084,90084,188355,HAS_BANK_ACCOUNT
90191,90191,188462,HAS_BANK_ACCOUNT
90314,90314,188585,HAS_BANK_ACCOUNT
90320,90320,188591,HAS_BANK_ACCOUNT
90452,90452,188723,HAS_BANK_ACCOUNT
90646,90646,188917,HAS_BANK_ACCOUNT
90697,90697,188968,HAS_BANK_ACCOUNT
90756,90756,189027,HAS_BANK_ACCOUNT
90841,90841,189112,HAS_BANK_ACCOUNT
91000,91000,189271,HAS_BANK_ACCOUNT
91214,91214,189485,HAS_BANK_ACCOUNT
91260,91260,189531,HAS_BANK_ACCOUNT
91374,91374,189645,HAS_BANK_ACCOUNT
91544,91544,189815,HAS_BANK_ACCOUNT
91627,91627,189898,HAS_BANK_ACCOUNT
91731,91731,190002,HAS_BANK_ACCOUNT
91756,91756,190027,HAS_BANK_ACCOUNT
91811,91811,190082,HAS_BANK_ACCOUNT
91847,91847,190118,HAS_BANK_ACCOUNT
91889,91889,190160,HAS_BANK_ACCOUNT
92037,92037,190308,HAS_BANK_ACCOUNT
92242,92242,190513,HAS_BANK_ACCOUNT
92249,92249,190520,HAS_BANK_ACCOUNT
92276,92276,190547,HAS_BANK_ACCOUNT
92306,92306,190577,HAS_BANK_ACCOUNT
92323,92323,190594,HAS_BANK_ACCOUNT
92331,92331,190602,HAS_BANK_ACCOUNT
92443,92443,190714,HAS_BANK_ACCOUNT
92462,92462,190733,HAS_BANK_ACCOUNT
92570,92570,190841,HAS_BANK_ACCOUNT
92583,92583,190854,HAS_BANK_ACCOUNT
93121,93121,191392,HAS_BANK_ACCOUNT
93213,93213,191484,HAS_BANK_ACCOUNT
93254,93254,191525,HAS_BANK_ACCOUNT
93286,93286,191557,HAS_BANK_ACCOUNT
93608,93608,191879,HAS_BANK_ACCOUNT
93645,93645,191916,HAS_BANK_ACCOUNT
93868,93868,192139,HAS_BANK_ACCOUNT
93889,93889,192160,HAS_BANK_ACCOUNT
93985,93985,192256,HAS_BANK_ACCOUNT
94002,94002,192273,HAS_BANK_ACCOUNT
94053,94053,192324,HAS_BANK_ACCOUNT
94137,94137,192408,HAS_BANK_ACCOUNT
94173,94173,192444,HAS_BANK_ACCOUNT
94336,94336,192607,HAS_BANK_ACCOUNT
94507,94507,192778,HAS_BANK_ACCOUNT
94527,94527,192798,HAS_BANK_ACCOUNT
94683,94683,192954,HAS_BANK_ACCOUNT
94718,94718,192989,HAS_BANK_ACCOUNT
94723,94723,192994,HAS_BANK_ACCOUNT
94775,94775,193046,HAS_BANK_ACCOUNT
94784,94784,193055,HAS_BANK_ACCOUNT
94906,94906,193177,HAS_BANK_ACCOUNT
59516,59516,157787,HAS_BANK_ACCOUNT
59562,59562,157833,HAS_BANK_ACCOUNT
59569,59569,157840,HAS_BANK_ACCOUNT
59687,59687,157958,HAS_BANK_ACCOUNT
59728,59728,157999,HAS_BANK_ACCOUNT
59808,59808,158079,HAS_BANK_ACCOUNT
59883,59883,158154,HAS_BANK_ACCOUNT
59923,59923,158194,HAS_BANK_ACCOUNT
59938,59938,158209,HAS_BANK_ACCOUNT
60036,60036,158307,HAS_BANK_ACCOUNT
60054,60054,158325,HAS_BANK_ACCOUNT
60082,60082,158353,HAS_BANK_ACCOUNT
60095,60095,158366,HAS_BANK_ACCOUNT
60222,60222,158493,HAS_BANK_ACCOUNT
60245,60245,158516,HAS_BANK_ACCOUNT
60263,60263,158534,HAS_BANK_ACCOUNT
60375,60375,158646,HAS_BANK_ACCOUNT
60410,60410,158681,HAS_BANK_ACCOUNT
60539,60539,158810,HAS_BANK_ACCOUNT
60610,60610,158881,HAS_BANK_ACCOUNT
60626,60626,158897,HAS_BANK_ACCOUNT
60855,60855,159126,HAS_BANK_ACCOUNT
60930,60930,159201,HAS_BANK_ACCOUNT
61039,61039,159310,HAS_BANK_ACCOUNT
61062,61062,159333,HAS_BANK_ACCOUNT
61117,61117,159388,HAS_BANK_ACCOUNT
61198,61198,159469,HAS_BANK_ACCOUNT
61264,61264,159535,HAS_BANK_ACCOUNT
61366,61366,159637,HAS_BANK_ACCOUNT
61411,61411,159682,HAS_BANK_ACCOUNT
61444,61444,159715,HAS_BANK_ACCOUNT
61679,61679,159950,HAS_BANK_ACCOUNT
61689,61689,159960,HAS_BANK_ACCOUNT
61772,61772,160043,HAS_BANK_ACCOUNT
61809,61809,160080,HAS_BANK_ACCOUNT
61894,61894,160165,HAS_BANK_ACCOUNT
61945,61945,160216,HAS_BANK_ACCOUNT
62007,62007,160278,HAS_BANK_ACCOUNT
62036,62036,160307,HAS_BANK_ACCOUNT
62046,62046,160317,HAS_BANK_ACCOUNT
62060,62060,160331,HAS_BANK_ACCOUNT
62165,62165,160436,HAS_BANK_ACCOUNT
62307,62307,160578,HAS_BANK_ACCOUNT
62347,62347,160618,HAS_BANK_ACCOUNT
62450,62450,160721,HAS_BANK_ACCOUNT
62608,62608,160879,HAS_BANK_ACCOUNT
62761,62761,161032,HAS_BANK_ACCOUNT
62853,62853,161124,HAS_BANK_ACCOUNT
62892,62892,161163,HAS_BANK_ACCOUNT
62955,62955,161226,HAS_BANK_ACCOUNT
62977,62977,161248,HAS_BANK_ACCOUNT
63260,63260,161531,HAS_BANK_ACCOUNT
63305,63305,161576,HAS_BANK_ACCOUNT
63492,63492,161763,HAS_BANK_ACCOUNT
63546,63546,161817,HAS_BANK_ACCOUNT
63576,63576,161847,HAS_BANK_ACCOUNT
63680,63680,161951,HAS_BANK_ACCOUNT
63687,63687,161958,HAS_BANK_ACCOUNT
63728,63728,161999,HAS_BANK_ACCOUNT
63755,63755,162026,HAS_BANK_ACCOUNT
63899,63899,162170,HAS_BANK_ACCOUNT
64001,64001,162272,HAS_BANK_ACCOUNT
64019,64019,162290,HAS_BANK_ACCOUNT
64059,64059,162330,HAS_BANK_ACCOUNT
64083,64083,162354,HAS_BANK_ACCOUNT
64285,64285,162556,HAS_BANK_ACCOUNT
64386,64386,162657,HAS_BANK_ACCOUNT
64474,64474,162745,HAS_BANK_ACCOUNT
64531,64531,162802,HAS_BANK_ACCOUNT
64711,64711,162982,HAS_BANK_ACCOUNT
64972,64972,163243,HAS_BANK_ACCOUNT
64995,64995,163266,HAS_BANK_ACCOUNT
64996,64996,163267,HAS_BANK_ACCOUNT
65065,65065,163336,HAS_BANK_ACCOUNT
65095,65095,163366,HAS_BANK_ACCOUNT
65096,65096,163367,HAS_BANK_ACCOUNT
65105,65105,163376,HAS_BANK_ACCOUNT
65125,65125,163396,HAS_BANK_ACCOUNT
65126,65126,163397,HAS_BANK_ACCOUNT
65130,65130,163401,HAS_BANK_ACCOUNT
65292,65292,163563,HAS_BANK_ACCOUNT
65362,65362,163633,HAS_BANK_ACCOUNT
65370,65370,163641,HAS_BANK_ACCOUNT
65572,65572,163843,HAS_BANK_ACCOUNT
65722,65722,163993,HAS_BANK_ACCOUNT
65826,65826,164097,HAS_BANK_ACCOUNT
65981,65981,164252,HAS_BANK_ACCOUNT
66002,66002,164273,HAS_BANK_ACCOUNT
70256,70256,168527,HAS_BANK_ACCOUNT
48932,48932,147203,HAS_BANK_ACCOUNT
365,365,98636,HAS_BANK_ACCOUNT
